…
I decided to organize a Super Bowl Squares raffle and create my random board in R! I have a simple spreadsheet with all of the participants and the number of squares they have claimed. All squares were claimed meaning the “squares” column adds up to 100 exactly. Squares cost $20 apiece- hypothetically of course.

squares

## # A tibble: 28 x 2
##    participants squares
##    <chr>          <dbl>
##  1 Kyle               4
##  2 Dennis             5
##  3 Carlos             3
##  4 Mike               2
##  5 Parker             5
##  6 Pete               2
##  7 Papa               4
##  8 Alison             2
##  9 Julie D            4
## 10 Billy/Gena         4
## # ... with 18 more rows
…
